{
	"order_id": 1,
	"user_id": 1,
	"transact_date": "01/26/2023",
	"Status": "Out for delivery",
	"total": 495,

}


{
	"order_id": 1,
	"user_id": 1,
	"transact_date": "01/26/2023",
	"Status": "Out for delivery",
	"total": 495,

}

{
	"product_id": 1,
	"name": "Klir Shampoo",
	"description": "Klir na klir ang ulo mo",
	"price": 450,
	"stocks": 289,
	"is_active": true,
	"SKU": 0,
}
{
	"order_id": 1,
	"product_id": 1,
	"quantity": 1,
	"price": 450,
	"sub_total": 495,
	
}